/Users/hiromi/src/work/spring_boot_hoge/src/main/java/com/example/UserMapper.java
/Users/hiromi/src/work/spring_boot_hoge/src/main/java/com/example/Swagger2Config.java
/Users/hiromi/src/work/spring_boot_hoge/src/main/java/com/example/User.java
/Users/hiromi/src/work/spring_boot_hoge/src/main/java/com/example/service/impl/UsersServiceImpl.java
/Users/hiromi/src/work/spring_boot_hoge/src/main/java/com/example/service/UsersService.java
/Users/hiromi/src/work/spring_boot_hoge/src/main/java/com/example/SampleController.java
/Users/hiromi/src/work/spring_boot_hoge/src/main/java/com/example/util/ImageTypeCheck.java
/Users/hiromi/src/work/spring_boot_hoge/src/main/java/com/example/UserForm.java
/Users/hiromi/src/work/spring_boot_hoge/src/main/java/com/example/UploadForm.java
/Users/hiromi/src/work/spring_boot_hoge/src/main/java/com/example/Repository/UsersRepository.java
/Users/hiromi/src/work/spring_boot_hoge/src/main/java/com/example/SampleApplication.java
/Users/hiromi/src/work/spring_boot_hoge/src/main/java/com/example/UsersController.java
